<svg width="16" height="16" viewBox="0 0 16 16" fill="none" xmlns="http://www.w3.org/2000/svg">
<path d="M14.8529 4H13.4713C13.3774 4 13.2889 4.03906 13.2337 4.10313L8.00017 10.2219L2.76666 4.10313C2.71139 4.03906 2.62297 4 2.52902 4H1.14742C1.02768 4 0.957681 4.11563 1.02768 4.19844L7.52305 11.7937C7.75885 12.0687 8.24149 12.0687 8.47544 11.7937L14.9708 4.19844C15.0427 4.11563 14.9727 4 14.8529 4Z" fill="#969BAB"/>
</svg>
